{
  "configVersion": 2,
  "packages": [
    {
      "name": "async",
      "rootUri": "file:///home/aipxperts/snap/flutter/common/flutter/.pub-cache/hosted/pub.dartlang.org/async-2.5.0",
      "packageUri": "lib/",
      "languageVersion": "2.12"
    },
    {
      "name": "boolean_selector",
      "rootUri": "file:///home/aipxperts/snap/flutter/common/flutter/.pub-cache/hosted/pub.dartlang.org/boolean_selector-2.1.0",
      "packageUri": "lib/",
      "languageVersion": "2.12"
    },
    {
      "name": "characters",
      "rootUri": "file:///home/aipxperts/snap/flutter/common/flutter/.pub-cache/hosted/pub.dartlang.org/characters-1.1.0",
      "packageUri": "lib/",
      "languageVersion": "2.12"
    },
    {
      "name": "charcode",
      "rootUri": "file:///home/aipxperts/snap/flutter/common/flutter/.pub-cache/hosted/pub.dartlang.org/charcode-1.2.0",
      "packageUri": "lib/",
      "languageVersion": "2.12"
    },
    {
      "name": "clock",
      "rootUri": "file:///home/aipxperts/snap/flutter/common/flutter/.pub-cache/hosted/pub.dartlang.org/clock-1.1.0",
      "packageUri": "lib/",
      "languageVersion": "2.12"
    },
    {
      "name": "collection",
      "rootUri": "file:///home/aipxperts/snap/flutter/common/flutter/.pub-cache/hosted/pub.dartlang.org/collection-1.15.0",
      "packageUri": "lib/",
      "languageVersion": "2.12"
    },
    {
      "name": "convert",
      "rootUri": "file:///home/aipxperts/snap/flutter/common/flutter/.pub-cache/hosted/pub.dartlang.org/convert-2.1.1",
      "packageUri": "lib/",
      "languageVersion": "1.17"
    },
    {
      "name": "cupertino_icons",
      "rootUri": "file:///home/aipxperts/snap/flutter/common/flutter/.pub-cache/hosted/pub.dartlang.org/cupertino_icons-1.0.2",
      "packageUri": "lib/",
      "languageVersion": "2.12"
    },
    {
      "name": "fake_async",
      "rootUri": "file:///home/aipxperts/snap/flutter/common/flutter/.pub-cache/hosted/pub.dartlang.org/fake_async-1.2.0",
      "packageUri": "lib/",
      "languageVersion": "2.12"
    },
    {
      "name": "flutter",
      "rootUri": "file:///home/aipxperts/snap/flutter/common/flutter/packages/flutter",
      "packageUri": "lib/",
      "languageVersion": "2.12"
    },
    {
      "name": "flutter_svg",
      "rootUri": "file:///home/aipxperts/snap/flutter/common/flutter/.pub-cache/hosted/pub.dartlang.org/flutter_svg-0.18.1",
      "packageUri": "lib/",
      "languageVersion": "2.2"
    },
    {
      "name": "flutter_test",
      "rootUri": "file:///home/aipxperts/snap/flutter/common/flutter/packages/flutter_test",
      "packageUri": "lib/",
      "languageVersion": "2.12"
    },
    {
      "name": "matcher",
      "rootUri": "file:///home/aipxperts/snap/flutter/common/flutter/.pub-cache/hosted/pub.dartlang.org/matcher-0.12.10",
      "packageUri": "lib/",
      "languageVersion": "2.12"
    },
    {
      "name": "meta",
      "rootUri": "file:///home/aipxperts/snap/flutter/common/flutter/.pub-cache/hosted/pub.dartlang.org/meta-1.3.0",
      "packageUri": "lib/",
      "languageVersion": "2.12"
    },
    {
      "name": "nested",
      "rootUri": "file:///home/aipxperts/snap/flutter/common/flutter/.pub-cache/hosted/pub.dartlang.org/nested-1.0.0",
      "packageUri": "lib/",
      "languageVersion": "2.12"
    },
    {
      "name": "path",
      "rootUri": "file:///home/aipxperts/snap/flutter/common/flutter/.pub-cache/hosted/pub.dartlang.org/path-1.8.0",
      "packageUri": "lib/",
      "languageVersion": "2.12"
    },
    {
      "name": "path_drawing",
      "rootUri": "file:///home/aipxperts/snap/flutter/common/flutter/.pub-cache/hosted/pub.dartlang.org/path_drawing-0.4.1+1",
      "packageUri": "lib/",
      "languageVersion": "1.19"
    },
    {
      "name": "path_parsing",
      "rootUri": "file:///home/aipxperts/snap/flutter/common/flutter/.pub-cache/hosted/pub.dartlang.org/path_parsing-0.1.4",
      "packageUri": "lib/",
      "languageVersion": "1.19"
    },
    {
      "name": "petitparser",
      "rootUri": "file:///home/aipxperts/snap/flutter/common/flutter/.pub-cache/hosted/pub.dartlang.org/petitparser-3.1.0",
      "packageUri": "lib/",
      "languageVersion": "2.7"
    },
    {
      "name": "provider",
      "rootUri": "file:///home/aipxperts/snap/flutter/common/flutter/.pub-cache/hosted/pub.dartlang.org/provider-4.3.3",
      "packageUri": "lib/",
      "languageVersion": "2.7"
    },
    {
      "name": "sky_engine",
      "rootUri": "file:///home/aipxperts/snap/flutter/common/flutter/bin/cache/pkg/sky_engine",
      "packageUri": "lib/",
      "languageVersion": "2.12"
    },
    {
      "name": "source_span",
      "rootUri": "file:///home/aipxperts/snap/flutter/common/flutter/.pub-cache/hosted/pub.dartlang.org/source_span-1.8.0",
      "packageUri": "lib/",
      "languageVersion": "2.12"
    },
    {
      "name": "stack_trace",
      "rootUri": "file:///home/aipxperts/snap/flutter/common/flutter/.pub-cache/hosted/pub.dartlang.org/stack_trace-1.10.0",
      "packageUri": "lib/",
      "languageVersion": "2.12"
    },
    {
      "name": "stream_channel",
      "rootUri": "file:///home/aipxperts/snap/flutter/common/flutter/.pub-cache/hosted/pub.dartlang.org/stream_channel-2.1.0",
      "packageUri": "lib/",
      "languageVersion": "2.12"
    },
    {
      "name": "string_scanner",
      "rootUri": "file:///home/aipxperts/snap/flutter/common/flutter/.pub-cache/hosted/pub.dartlang.org/string_scanner-1.1.0",
      "packageUri": "lib/",
      "languageVersion": "2.12"
    },
    {
      "name": "term_glyph",
      "rootUri": "file:///home/aipxperts/snap/flutter/common/flutter/.pub-cache/hosted/pub.dartlang.org/term_glyph-1.2.0",
      "packageUri": "lib/",
      "languageVersion": "2.12"
    },
    {
      "name": "test_api",
      "rootUri": "file:///home/aipxperts/snap/flutter/common/flutter/.pub-cache/hosted/pub.dartlang.org/test_api-0.2.19",
      "packageUri": "lib/",
      "languageVersion": "2.12"
    },
    {
      "name": "typed_data",
      "rootUri": "file:///home/aipxperts/snap/flutter/common/flutter/.pub-cache/hosted/pub.dartlang.org/typed_data-1.3.0",
      "packageUri": "lib/",
      "languageVersion": "2.12"
    },
    {
      "name": "vector_math",
      "rootUri": "file:///home/aipxperts/snap/flutter/common/flutter/.pub-cache/hosted/pub.dartlang.org/vector_math-2.1.0",
      "packageUri": "lib/",
      "languageVersion": "2.12"
    },
    {
      "name": "xml",
      "rootUri": "file:///home/aipxperts/snap/flutter/common/flutter/.pub-cache/hosted/pub.dartlang.org/xml-4.5.1",
      "packageUri": "lib/",
      "languageVersion": "2.7"
    },
    {
      "name": "base_theme",
      "rootUri": "../",
      "packageUri": "lib/",
      "languageVersion": "2.7"
    }
  ],
  "generated": "2021-03-23T07:43:41.651091Z",
  "generator": "pub",
  "generatorVersion": "2.12.0"
}
